<?xml version="1.0" standalone="no"?>
<!DOCTYPE svg PUBLIC "-//W3C//DTD SVG 1.1//EN" "http://www.w3.org/Graphics/SVG/1.1/DTD/svg11.dtd">
<svg xmlns="http://www.w3.org/2000/svg">
<metadata>Copyright (C) 2015 by original authors @ fontello.com</metadata>
<defs>
<font id="icon-aviabee" horiz-adv-x="1000" >
<font-face font-family="icon-aviabee" font-weight="400" font-stretch="normal" units-per-em="1000" ascent="850" descent="-150" />
<missing-glyph horiz-adv-x="1000" />
<glyph glyph-name="scenery" unicode="&#xe800;" d="m845 741c-36-31-66-55-66-55-1 0-54 23-119 50l-117 49-21-15c-13-8-22-18-22-21 0-4 41-36 90-74 49-37 90-69 90-70 0-2-20-20-43-40-43-37-44-37-77-29-29 8-34 7-50-8l-17-16 33-25c23-18 37-36 47-66 8-22 17-40 20-40 16 0 32 32 32 64 0 32 2 36 41 67 22 18 44 33 49 33 4 1 22-43 39-99 46-145 40-134 66-107l23 23-15 136c-14 133-14 138 0 149 8 6 38 30 66 54 54 44 66 65 51 83-16 20-33 12-100-43z m-622 22c-3-6-5-46-6-89l-2-78-53-2c-53-3-53-3-51-24l2-21 125 0 125 0 3 21c2 21 2 21-51 24l-53 2-4 86c-3 74-6 86-18 88-7 2-15-1-17-7z m-114-315c0-14 6-41 12-60 11-29 11-34 0-40-9-5-12-24-12-92l0-85-40-2-42-3-2-125c-2-100 0-129 9-136 8-6 104-8 354-7l343 3 2 65 2 64 81 0 82 0 0-58c0-64 9-78 45-74l22 3 2 134 2 135-43 0-43 0 0 32 0 31-150-2-151-2-2-30-3-29-103 2-103 2-2 82c-2 62-5 85-13 91-11 8-11 12 0 42 6 18 11 45 11 59l0 27-129 0-129 0 0-27z m125-457l0-39-82 0-82 0 0 39 0 39 82 0 82 0 0-39z m227 0l0-39-82 0-82 0 0 39 0 39 82 0 82 0 0-39z m219 0l0-39-78 0-79 0 0 39 0 39 79 0 78 0 0-39z" horiz-adv-x="1000" />
<glyph glyph-name="spin" unicode="&#xe801;" d="m855 9c-189-190-520-172-705 13-190 190-200 494-28 695 11 13 21 26 35 34 36 23 85 18 117-13 30-31 35-76 16-112-5-9-9-15-16-22-140-151-145-379-8-516 153-153 407-121 542 34 106 122 142 297 77 451-83 198-305 291-510 222l0 1c236 82 492-24 588-252 71-167 37-355-72-493-11-15-23-29-36-42z" horiz-adv-x="1000" />
<glyph glyph-name="sitemap" unicode="&#xe802;" d="m1000 154v-179q0-22-16-38t-38-16h-178q-22 0-38 16t-16 38v179q0 22 16 38t38 15h53v107h-285v-107h53q23 0 38-15t16-38v-179q0-22-16-38t-38-16h-178q-23 0-38 16t-16 38v179q0 22 16 38t38 15h53v107h-285v-107h53q22 0 38-15t16-38v-179q0-22-16-38t-38-16h-178q-23 0-38 16t-16 38v179q0 22 16 38t38 15h53v107q0 29 21 51t51 21h285v107h-53q-23 0-38 15t-16 38v179q0 22 16 38t38 16h178q23 0 38-16t16-38v-179q0-22-16-38t-38-15h-53v-107h285q29 0 51-21t21-51v-107h53q23 0 38-15t16-38z" horiz-adv-x="1000" />
<glyph glyph-name="print" unicode="&#xe803;" d="m66 526q-26 0-22 22 4 10 12 14 2 0 49 17t93 32 58 15l44 0 0 150 380 0 0-150 46 0q12 0 57-15t92-32 49-17q18-8 12-26-4-10-20-10l-850 0z m860-56q20 0 37-19t17-41l0-174q0-22-17-41t-37-19l-100 0 44-250-760 0 44 250-98 0q-20 0-38 19t-18 41l0 174q0 22 18 41t38 19l870 0z m-716-444l560 0-70 324-420 0z" horiz-adv-x="980" />
<glyph glyph-name="link" unicode="&#xe804;" d="m812 171q0 23-15 38l-116 116q-16 16-38 16-24 0-40-18 1-1 10-10t12-12 9-11 7-14 2-15q0-23-16-38t-38-16q-8 0-15 2t-14 7-11 9-12 12-10 10q-19-17-19-40 0-23 16-38l115-116q15-15 38-15 22 0 38 15l82 81q15 16 15 37z m-392 394q0 22-15 38l-115 115q-16 16-38 16-22 0-38-15l-82-82q-16-15-16-37 0-22 16-38l116-116q15-15 38-15 23 0 40 17-2 2-11 11t-12 12-8 10-7 14-2 16q0 22 15 38t38 15q9 0 16-2t14-7 10-8 12-12 11-11q18 17 18 41z m500-394q0-67-48-113l-82-81q-46-47-113-47-68 0-114 48l-115 115q-46 47-46 114 0 68 49 116l-49 49q-48-49-116-49-67 0-114 47l-116 116q-47 47-47 114t47 113l82 82q47 46 114 46 67 0 114-47l114-116q47-46 47-113 0-69-49-117l49-49q48 49 116 49 67 0 114-47l116-116q47-47 47-114z" horiz-adv-x="928.6" />
<glyph glyph-name="flight" unicode="&#xe805;" d="m768 761q24-29 7-83t-61-96l-90-90 90-388q3-11-7-18l-71-54q-4-3-11-3-2 0-4 0-8 2-12 9l-155 284-145-145 30-108q3-10-5-18l-53-53q-5-5-13-5h-1q-9 1-14 7l-105 141-141 105q-6 4-7 13-1 7 5 14l54 54q5 5 12 5 4 0 5 0l108-30 145 145-284 155q-8 5-9 14-1 9 5 15l71 71q8 7 17 5l371-89 89 89q43 42 96 60t83-6z" horiz-adv-x="785.7" />
<glyph glyph-name="calendar" unicode="&#xe806;" d="m71-79h161v161h-161v-161z m197 0h178v161h-178v-161z m-197 197h161v178h-161v-178z m197 0h178v178h-178v-178z m-197 214h161v161h-161v-161z m411-411h179v161h-179v-161z m-214 411h178v161h-178v-161z m428-411h161v161h-161v-161z m-214 197h179v178h-179v-178z m-196 482v161q0 7-6 12t-12 6h-36q-7 0-12-6t-6-12v-161q0-7 6-13t12-5h36q7 0 12 5t6 13z m410-482h161v178h-161v-178z m-214 214h179v161h-179v-161z m214 0h161v161h-161v-161z m18 268v161q0 7-5 12t-13 6h-35q-8 0-13-6t-5-12v-161q0-7 5-13t13-5h35q8 0 13 5t5 13z m215 36v-715q0-29-22-50t-50-21h-786q-29 0-50 21t-21 50v715q0 29 21 50t50 21h72v54q0 36 26 63t63 26h36q37 0 63-26t26-63v-54h214v54q0 36 27 63t63 26h35q37 0 63-26t27-63v-54h71q29 0 50-21t22-50z" horiz-adv-x="928.6" />
<glyph glyph-name="repaint" unicode="&#xe807;" d="m752 715c-7-9-39-50-71-92-32-42-68-89-80-103l-20-27-39-4-38-4-19 5c-11 2-48 10-83 17-65 14-110 25-133 34l-14 6 1 11c0 6 5 28 12 51 7 27 12 45 12 53l0 11-7 4c-9 4-44 12-71 15-22 3-20 4-40-21-10-12-12-14-15-12-2 1-10 9-18 19-17 21-23 26-26 25-4-2-22-27-33-47-17-32-32-68-34-86-1-8-1-9 20-37 13-16 22-31 22-32-1-2-4-4-10-6-17-5-17-5-25-31-11-33-18-61-17-65 1-2 5-4 10-6 13-3 55-8 72-8l16 0 25 25c41 40 47 44 72 39 31-6 74-21 173-59 39-16 64-26 67-30 7-6 20-30 20-37 0-9-15-64-40-151-42-143-51-181-45-190 1-2 9-4 18-6 18-4 79-20 102-27 9-3 17-5 17-4 6 3 65 98 110 177 8 13 15 23 16 23 1 0 8-2 15-4 18-5 51-12 62-12 18 0 24 11 17 26-2 4-8 11-13 17l-10 9 4 13c3 7 7 16 10 21 4 8 5 8 15 8 6 0 25-2 42-5 43-7 66-6 84 3 7 3 17 9 21 13l8 7 17-2c21-3 28-3 36 1 6 3 8 6 8 13 0 8-8 14-26 22-17 7-17 7-17 15 0 16-13 40-28 53-5 5-14 9-25 12-15 5-17 7-31 21-9 10-21 25-29 39l-14 23 6 23c9 30 20 60 50 137 37 93 38 96 28 101-10 5-110 32-119 32-3 0-9-6-18-16z m-38-492c3-9-7-37-13-37-1 0-5 2-10 4l-8 4 7 8c4 5 9 12 13 17 8 9 9 10 11 4z" horiz-adv-x="1000" />
<glyph glyph-name="location" unicode="&#xe808;" d="m0 473q0 156 110 267t267 110 267-110 110-267q0-123-53-193l-324-430-324 430q-53 70-53 193z m219 0q0-66 46-112t112-46 112 46 46 112-46 112-112 46-112-46-46-112z" horiz-adv-x="754" />
<glyph glyph-name="search" unicode="&#xe809;" d="m643 386q0 103-74 176t-176 74-177-74-73-176 73-177 177-73 176 73 74 177z m286-465q0-29-22-50t-50-21q-30 0-50 21l-191 191q-100-69-223-69-80 0-153 31t-125 84-84 125-31 153 31 152 84 126 125 84 153 31 152-31 126-84 84-126 31-152q0-123-69-223l191-191q21-21 21-51z" horiz-adv-x="928.6" />
<glyph glyph-name="convert" unicode="&#xe80a;" d="m843 261q0-3 0-4-36-150-150-243t-267-93q-81 0-157 31t-136 88l-72-72q-11-11-25-11t-25 11-11 25v250q0 14 11 25t25 11h250q14 0 25-11t10-25-10-25l-77-77q40-37 90-57t105-20q74 0 139 37t104 99q6 10 29 66 5 13 17 13h107q8 0 13-6t5-12z m14 446v-250q0-14-10-25t-26-11h-250q-14 0-25 11t-10 25 10 25l77 77q-82 77-194 77-75 0-140-37t-104-99q-6-10-29-66-5-13-17-13h-111q-7 0-13 6t-5 12v4q36 150 151 243t268 93q81 0 158-31t137-88l72 72q11 11 25 11t26-11 10-25z" horiz-adv-x="857.1" />
<glyph glyph-name="developer" unicode="&#xe80b;" d="m1000-90l-224 0 0 150q0 54-30 81t-154 89q40 30 40 84 0 16-13 33t-19 51q-2 8-14 16t-14 42q0 24 12 30-6 34-8 60-4 38 23 78t95 40 96-40 24-78l-8-60q12-6 12-30-2-34-14-42t-14-16q-6-34-19-51t-13-33q0-42 21-66t77-48q112-46 130-80 6-8 9-61t5-101l0-48z m-488 262q182-78 182-124l0-138-694 0 0 184q0 44 84 78 76 32 104 64t28 88q0 20-19 44t-25 68q-2 10-18 22t-20 56q0 14 3 23t7 13l4 2q-6 46-10 82-4 50 33 103t127 53 127-53 33-103l-10-82q14-8 14-38-4-44-20-56t-18-22q-6-44-25-68t-19-44q0-56 28-88t104-64z" horiz-adv-x="1000" />
<glyph glyph-name="user" unicode="&#xe80c;" d="m736 128q204-72 204-122l0-106-940 0 0 106q0 50 204 122 94 34 128 69t34 95q0 22-22 49t-32 73q-2 12-9 18t-14 8-14 17-9 43q0 16 5 26t9 12l4 4q-8 50-12 88-4 54 41 112t157 58 158-58 40-112l-12-88q18-8 18-42-2-28-9-43t-14-17-14-8-9-18q-8-48-31-74t-23-48q0-60 35-95t127-69z" horiz-adv-x="940" />
<glyph glyph-name="star" unicode="&#xe80d;" d="m297 498q69 152 114 252 6 15 24 15t23-15l114-252q164-18 274-30 15-3 21-18t-6-27l-204-187q33-161 55-270 3-15-10-25t-27-2l-240 136q-144-81-240-136-15-9-28 2t-11 25l56 270q-122 112-204 187-12 11-6 26t21 19z" horiz-adv-x="869" />
<glyph glyph-name="download" unicode="&#xe80e;" d="m714 100q0 15-10 25t-25 11-26-11-10-25 10-25 26-11 25 11 10 25z m143 0q0 15-10 25t-26 11-25-11-10-25 10-25 25-11 26 11 10 25z m72 125v-179q0-22-16-37t-38-16h-821q-23 0-38 16t-16 37v179q0 22 16 38t38 16h259l75-76q33-32 76-32t76 32l76 76h259q22 0 38-16t16-38z m-182 318q10-23-8-40l-250-250q-10-10-25-10t-25 10l-250 250q-17 17-8 40 10 21 33 21h143v250q0 15 11 25t25 11h143q14 0 25-11t10-25v-250h143q24 0 33-21z" horiz-adv-x="928.6" />
<glyph glyph-name="ticket" unicode="&#xe80f;" d="m571 598l177-177-319-319-177 177z m-117-547l345 345q10 11 10 25t-10 26l-202 202q-10 10-26 10t-25-10l-345-345q-10-11-10-25t10-26l202-202q11-10 26-10t25 10z m496 356l-506-507q-21-20-51-20t-50 20l-71 70q32 32 32 76t-32 76-76 32-75-32l-70 71q-21 20-21 50t21 51l506 505q21 21 50 21t51-21l70-70q-32-31-32-75t32-76 76-32 75 32l71-70q20-21 20-51t-20-50z" horiz-adv-x="1000" />
<glyph glyph-name="list" unicode="&#xe810;" d="m214 189v-35q0-8-5-13t-13-5h-35q-7 0-13 5t-5 13v35q0 8 5 13t13 5h35q8 0 13-5t5-13z m0 143v-36q0-7-5-12t-13-5h-35q-7 0-13 5t-5 12v36q0 7 5 13t13 5h35q8 0 13-5t5-13z m0 143v-36q0-7-5-12t-13-6h-35q-7 0-13 6t-5 12v36q0 7 5 13t13 5h35q8 0 13-5t5-13z m643-286v-35q0-8-5-13t-13-5h-535q-8 0-13 5t-5 13v35q0 8 5 13t13 5h535q8 0 13-5t5-13z m0 143v-36q0-7-5-12t-13-5h-535q-8 0-13 5t-5 12v36q0 7 5 13t13 5h535q8 0 13-5t5-13z m0 143v-36q0-7-5-12t-13-6h-535q-8 0-13 6t-5 12v36q0 7 5 13t13 5h535q8 0 13-5t5-13z m72-393v464q0 8-6 13t-12 5h-822q-7 0-12-5t-6-13v-464q0-7 6-12t12-6h822q7 0 12 6t6 12z m71 607v-607q0-37-26-63t-63-26h-822q-36 0-63 26t-26 63v607q0 37 26 63t63 27h822q37 0 63-27t26-63z" horiz-adv-x="1000" />
<glyph glyph-name="world" unicode="&#xe811;" d="m429 779q116 0 215-58t156-156 57-215-57-215-156-156-215-58-216 58-155 156-58 215 58 215 155 156 216 58z m152-291q-1-1-5-5t-7-6q1 0 2 3t3 6 2 4q3 4 12 8 8 4 29 7 19 5 29-6-1 1 5 7t8 7q2 1 8 2t9 5l1 12q-7-1-10 4t-3 12q0-2-4-5 0 4-2 5t-7-1-5-1q-5 2-8 5t-5 9-2 8q-1 3-5 6t-5 6q-1 1-2 3t-2 4-2 3-3 1-4-3-4-5-2-3q-2 1-4 1t-2-1-3-2-3-2q-1-1-4-1t-5-1q8 3-1 6-5 2-9 1 5 3 5 7t-5 8h3q-1 2-5 5t-10 4-7 4q-5 3-19 5t-18 0q-3-3-3-5t2-8 2-7q1-4-3-7t-3-7q0-4 7-9t6-12q-2-4-9-9t-9-6q-3-5-1-11t6-9q1-1 1-2t-2-3-3-2-4-2l-1-1q-7-3-12 3t-7 15q-4 14-9 17-13 4-17-1-2 7-22 15-14 5-33 2 4 0 0 8-4 9-10 7 1 3 2 10t0 7q2 7 7 13 1 1 4 5t5 7 1 4q19-3 28 6 2 2 6 9t6 10q5 3 8 3t8-3 8-3q8-1 8 6t-4 11q7 0 2 10-3 4-5 5-6 2-15-3-4-2 2-4-1 0-6-6t-9-10-9 3q0 0-3 7t-5 8q-5 0-9-9 1 5-6 9t-14 4q11 7-4 15-4 3-12 3t-11-2q-2-4-3-7t3-4 6-3 6-2 5-2q8-6 5-8-1 0-5-2t-6-2-4-3q-2-2 0-7t-1-8q-3 3-5 10t-4 9q4-5-14-4l-5 1q-3 0-9-1t-12-1-7 5q-3 4 0 11 0 2 2 1-2 2-6 5t-6 5q-25-8-52-23 3 0 6 1 3 1 8 3t5 4q19 7 24 3l3 3q7-9 11-14-4 3-17 1-11-4-12-7 4-7 2-10-2 2-6 6t-8 6-8 3q-9 0-13-1-81-45-131-124 4-4 7-4 2-1 3-5t1-6 6 1q5-4 2-10 1 0 25-15 10-10 11-12 2-6-5-10-1 1-5 5t-5 2q-2-3 0-10t6-7q-4 0-5-9t-2-20 0-13l1-1q-2-6 3-19t12-11q-7-1 11-24 3-4 4-5 2-1 7-4t9-6 5-5q2-3 6-13t8-13q-2-3 5-11t6-13q-1 0-2-1t-1 0q2-4 9-8t8-7q1-2 1-6t2-6 4-1q2 11-13 34-8 14-9 17-2 2-4 8t-2 8q1 0 3 0t5-2 4-3 1-1q-1-4 1-10t7-10 10-11 6-7q4-4 8-11t0-8q5 0 11-5t10-11q3-5 4-15t3-13q1-4 5-8t7-5l9-5t7-3q3-2 10-6t12-7q6-2 9-2t8 1 8 2q8 1 16-8t12-12q20-10 30-6-1 0 1-4t4-9 5-8 3-5q3-3 10-8t10-8q4 2 4 5-1-5 4-11t10-6q8 2 8 18-17-9-27 10 0 0-2 3t-2 5-1 4 0 5 2 1q5 0 6 2t-1 7-2 8q-1 4-6 11t-7 8q-3-5-9-4t-9 5q0-1-1-3t-1-4q-7 0-8 0 1 2 1 10t2 13q1 2 3 6t5 9 2 7-3 5-9 1q-11 0-15-11-1-2-2-6t-2-6-5-4q-4-2-14-1t-13 3q-8 4-13 16t-5 20q0 6 1 15t2 14-3 14q2 1 5 5t5 6q2 1 3 1t2 0 3 1 1 3q0 1-2 2-2 1-2 1 4-1 16 1t15-1q9-6 12 1 0 1-1 6t0 7q3-15 16-5 2-1 9-3t9-2q2-1 4-3t3-3 3 0 5 4q5-8 7-13 6-23 10-25 4-2 6-1t3 5 0 8-1 7l-1 4v11l0 4q-8 2-10 7t0 10 9 10q0 1 4 2t9 4 7 4q12 11 8 20 4 0 6 5 0 0-2 2t-5 2-2 2q5 2 1 8 3 2 4 7t4 5q5-7 12-1 4 5 1 9 2 4 11 6t10 5q4-1 5 1t0 7 2 7q2 2 8 5t8 2l9 7q2 2 0 2 10-1 18 6 5 6-4 11 2 3-2 5t-8 3q2 1 7 1t5 1q9 5-4 9-9 2-24-7z m-90-490q114 21 195 106-1 2-7 2t-7 2q-10 4-13 5 1 4-1 7t-5 5-7 5-6 4q-1 1-4 3t-4 3-4 2-5 2-5-1l-2-1q-2 0-3-1t-3-2-2-1 0-2q-12 10-20 13-3 0-7 3t-5 4-6 0-6-4q-3-2-4-8t-1-7q-4 3 0 10t1 10q-1 3-6 2t-6-2-7-5-5-3-4-3-5-5q-2-2-4-6t-2-7q-1 3-7 4t-5 3q1-5 2-19t3-22q4-17-7-26-15-14-16-23-2-12 7-14 0-4-5-12t-4-12q0-3 2-9z" horiz-adv-x="857.1" />
<glyph glyph-name="random" unicode="&#xe812;" d="m754 516q-54 0-105-32t-80-66-83-104q-48-62-75-94t-78-77-107-66-122-21l-104 0 0 140 104 0q54 0 106 32t81 66 83 104q62 82 101 126t116 88 163 44l36 0 0 120 210-180-210-180 0 100-36 0z m-484-88q-74 78-166 78l-104 0 0 140 104 0q140 0 254-108-14-16-37-45t-27-33q-8-12-24-32z m520-242l0 100 210-180-210-180 0 120-36 0q-140 0-260 116 46 58 72 92 0 2 6 9t8 11q84-88 174-88l36 0z" horiz-adv-x="1000" />
<glyph glyph-name="tools" unicode="&#xe813;" d="m500 350q0 59-42 101t-101 42-101-42-42-101 42-101 101-42 101 42 42 101z m429-286q0 29-22 51t-50 21-50-21-21-51q0-29 21-50t50-21 51 21 21 50z m0 572q0 29-22 50t-50 21-50-21-21-50q0-30 21-51t50-21 51 21 21 51z m-215-235v-103q0-6-4-11t-9-6l-86-14q-6-19-18-42 19-27 50-64 4-6 4-11 0-7-4-11-13-17-46-50t-44-33q-6 0-11 4l-64 50q-21-11-43-17-6-60-13-87-4-13-17-13h-104q-6 0-11 4t-5 10l-13 85q-19 6-42 18l-66-50q-4-4-11-4-6 0-12 4-80 75-80 90 0 5 4 10 5 8 23 30t26 34q-13 24-20 46l-85 13q-5 1-9 5t-4 11v103q0 6 4 11t9 6l86 14q7 19 18 42-19 27-50 64-4 6-4 11 0 7 4 11 12 17 46 50t44 33q6 0 12-4l64-50q19 10 43 18 6 60 13 86 3 13 16 13h104q6 0 11-4t6-10l13-85q19-6 41-17l66 49q5 4 11 4 7 0 12-4 81-75 81-90 0-5-4-10-7-9-24-30t-25-34q13-27 19-46l85-12q5-2 9-6t4-11z m357-298v-78q0-9-83-17-6-15-16-29 28-63 28-77 0-2-2-4-68-40-69-40-5 0-26 27t-29 37q-11-1-17-1t-17 1q-7-11-29-37t-25-27q-1 0-69 40-3 2-3 4 0 14 29 77-10 14-17 29-83 8-83 17v78q0 9 83 18 7 16 17 29-29 63-29 77 0 2 3 4 2 1 19 11t33 19 17 9q4 0 25-26t29-38q12 1 17 1t17-1q28 40 51 63l4 1q2 0 69-39 2-2 2-4 0-14-28-77 9-13 16-29 83-9 83-18z m0 572v-78q0-9-83-18-6-15-16-29 28-63 28-77 0-2-2-4-68-39-69-39-5 0-26 26t-29 38q-11-1-17-1t-17 1q-7-12-29-38t-25-26q-1 0-69 39-3 2-3 4 0 14 29 77-10 14-17 29-83 9-83 18v78q0 9 83 17 7 16 17 29-29 63-29 77 0 2 3 4 2 1 19 11t33 19 17 9q4 0 25-26t29-38q12 2 17 2t17-2q28 40 51 63l4 1q2 0 69-39 2-2 2-4 0-14-28-77 9-13 16-29 83-8 83-17z" horiz-adv-x="1071.4" />
<glyph glyph-name="info" unicode="&#xe814;" d="m0 350q0 207 147 354t353 146 354-146 146-354-146-354-354-146-353 146-147 354z m373 66l8-39 35 8q25 0 25-35l0-244q0-20-13-29-18-12-53-20l8-35q84 8 118 8t118-8l8 35q-35 10-53 20-10 6-11 11-2 4-2 18l0 240q0 49 15 90l-19 23q-32 0-90-13t-94-30z m35 195q0-30 20-50 21-18 56-18t57 19 22 49-22 49-57 18-56-17q-20-20-20-50z" horiz-adv-x="1000" />
</font>
</defs>
</svg>